Use case 2: Effect of LPS treated microglia EVs in healthy microglia – EV-Net
…
The final set of EV cargo is obtained by selecting proteins that are present in both the actual LPS-derived microglia EV cargo and the list of potential EV cargo (obtained in step 7). This ensures that we focus on proteins that are differentially abundant in the LPS-activated condition and that may influence the expressed genes in the receiving microglia.

EV_cargo <- intersect(potential_EV_cargo, LPS_EV_cargo)

12. Perform EV cargo activity analysis

EV_cargo_activities <- predict_EV_cargo_activities(geneset = geneset_oi,
                                               background_expressed_genes = background_expressed_genes,
                                               EV_cargo_target_matrix = EV_cargo_target_matrix,
                                               potential_EV_cargo = EV_cargo)

EV_cargo_activities <- EV_cargo_activities %>% arrange(-aupr_corrected) %>% mutate(rank = rank(desc(aupr_corrected)))
EV_cargo_activities

# A tibble: 34 × 6
   test_EV_cargo auroc   aupr aupr_corrected  pearson  rank
   <chr>         <dbl>  <dbl>          <dbl>    <dbl> <dbl>
 1 Mtdh          0.524 0.0143        0.00541 0.0385       1
 2 Sqstm1        0.503 0.0135        0.00453 0.00578      2
 3 Dbnl          0.500 0.0127        0.00371 0.0104       3
 4 Psmb3         0.497 0.0117        0.00274 0.0102       4
 5 Hspa4         0.521 0.0117        0.00274 0.00571      5
 6 Ptprc         0.538 0.0114        0.00242 0.00635      6
 7 Psmb1         0.480 0.0112        0.00226 0.00155      7
 8 Psmc1         0.496 0.0112        0.00224 0.00783      8
 9 Actr1a        0.493 0.0110        0.00207 0.000736     9
10 Ptgr1         0.537 0.0109        0.00198 0.0154      10
# ℹ 24 more rows
…
