…
    background_expressed_genes <- expressed_genes_receiver %>% .[. %in% rownames(EV_cargo_target_matrix)]

### 14. Perform EV cargo activity analysis

    EV_cargo_activities <- predict_EV_cargo_activities(geneset = geneset_oi,
                                                   background_expressed_genes = background_expressed_genes,
                                                   EV_cargo_target_matrix = EV_cargo_target_matrix,
                                                   potential_EV_cargo = EV_cargo)

    EV_cargo_activities <- EV_cargo_activities %>% arrange(-aupr_corrected) %>% mutate(rank = rank(desc(aupr_corrected)))
    EV_cargo_activities

    ## # A tibble: 275 × 6
    ##    test_EV_cargo auroc  aupr aupr_corrected pearson  rank
    ##    <chr>         <dbl> <dbl>          <dbl>   <dbl> <dbl>
    ##  1 Ifi35         0.561 0.154         0.0403 0.0959      1
    ##  2 Iars2         0.564 0.150         0.0368 0.0888      2
    ##  3 Gbp2          0.562 0.148         0.0350 0.0838      3
    ##  4 Rnpep         0.564 0.145         0.0318 0.0764      4
    ##  5 Psmb3         0.561 0.145         0.0317 0.0776      5
    ##  6 Scly          0.567 0.142         0.0289 0.0401      6
    ##  7 Idh1          0.564 0.142         0.0285 0.0466      7
    ##  8 Cops2         0.558 0.141         0.0278 0.00679     8
    ##  9 Pls3          0.552 0.140         0.0272 0.0675      9
    ## 10 H2-K1         0.547 0.139         0.0254 0.0466     10
    ## # ℹ 265 more rows
…
